Scenario;Model;Year;Value_CO2
Baseline;Imaclim-R;2020;393.6123979
Baseline;Imaclim-R;2021;421.445523
Baseline;Imaclim-R;2022;423.825345
Baseline;Imaclim-R;2023;423.4238948
Baseline;Imaclim-R;2024;423.1661648
Baseline;Imaclim-R;2025;424.7614683
Baseline;Imaclim-R;2026;423.5087086
Baseline;Imaclim-R;2027;424.0244924
Baseline;Imaclim-R;2028;422.4786793
Baseline;Imaclim-R;2029;422.3010903
Baseline;Imaclim-R;2030;424.3625222
Baseline;Imaclim-R;2031;425.3156258
Baseline;Imaclim-R;2032;426.2146903
Baseline;Imaclim-R;2033;427.4429067
Baseline;Imaclim-R;2034;428.9036393
Baseline;Imaclim-R;2035;430.8721757
Baseline;Imaclim-R;2036;423.1883462
Baseline;Imaclim-R;2037;425.9118642
Baseline;Imaclim-R;2038;433.1691964
Baseline;Imaclim-R;2039;437.8560798
Baseline;Imaclim-R;2040;442.5308646
Baseline;Imaclim-R;2041;459.4737076
Baseline;Imaclim-R;2042;473.614696
Baseline;Imaclim-R;2043;488.8294912
Baseline;Imaclim-R;2044;499.999695
Baseline;Imaclim-R;2045;506.6646566
Baseline;Imaclim-R;2046;512.7619261
Baseline;Imaclim-R;2047;522.8770306
Baseline;Imaclim-R;2048;534.3756048
Baseline;Imaclim-R;2049;545.5540918
Baseline;Imaclim-R;2050;557.1750204
NZE 2050;Imaclim-R;2020;379.5499355
NZE 2050;Imaclim-R;2021;397.0806266
NZE 2050;Imaclim-R;2022;392.0247969
NZE 2050;Imaclim-R;2023;389.6354792
NZE 2050;Imaclim-R;2024;382.8537989
NZE 2050;Imaclim-R;2025;373.7570729
NZE 2050;Imaclim-R;2026;365.8201698
NZE 2050;Imaclim-R;2027;358.6724657
NZE 2050;Imaclim-R;2028;353.2395877
NZE 2050;Imaclim-R;2029;347.691796
NZE 2050;Imaclim-R;2030;336.3771774
NZE 2050;Imaclim-R;2031;322.9185615
NZE 2050;Imaclim-R;2032;309.7425743
NZE 2050;Imaclim-R;2033;297.2870643
NZE 2050;Imaclim-R;2034;285.2989076
NZE 2050;Imaclim-R;2035;275.2998066
NZE 2050;Imaclim-R;2036;259.9413541
NZE 2050;Imaclim-R;2037;251.6392755
NZE 2050;Imaclim-R;2038;245.7668324
NZE 2050;Imaclim-R;2039;237.6924972
NZE 2050;Imaclim-R;2040;232.073048
NZE 2050;Imaclim-R;2041;230.2112844
NZE 2050;Imaclim-R;2042;227.4488692
NZE 2050;Imaclim-R;2043;225.4871853
NZE 2050;Imaclim-R;2044;223.7586339
NZE 2050;Imaclim-R;2045;221.3115778
NZE 2050;Imaclim-R;2046;218.6339092
NZE 2050;Imaclim-R;2047;216.2714062
NZE 2050;Imaclim-R;2048;214.0064776
NZE 2050;Imaclim-R;2049;212.0382282
NZE 2050;Imaclim-R;2050;212.3041573
Delayed;Imaclim-R;2020;393.2956427
Delayed;Imaclim-R;2021;413.5046143
Delayed;Imaclim-R;2022;411.2328775
Delayed;Imaclim-R;2023;407.6937338
Delayed;Imaclim-R;2024;405.0744446
Delayed;Imaclim-R;2025;401.9711913
Delayed;Imaclim-R;2026;401.6044048
Delayed;Imaclim-R;2027;403.7319069
Delayed;Imaclim-R;2028;394.7480534
Delayed;Imaclim-R;2029;382.7243368
Delayed;Imaclim-R;2030;375.5716235
Delayed;Imaclim-R;2031;369.1524513
Delayed;Imaclim-R;2032;352.8034489
Delayed;Imaclim-R;2033;331.4869609
Delayed;Imaclim-R;2034;311.4515414
Delayed;Imaclim-R;2035;293.8778988
Delayed;Imaclim-R;2036;272.2211494
Delayed;Imaclim-R;2037;260.4966615
Delayed;Imaclim-R;2038;253.4153364
Delayed;Imaclim-R;2039;243.7291149
Delayed;Imaclim-R;2040;234.1167255
Delayed;Imaclim-R;2041;231.325774
Delayed;Imaclim-R;2042;227.4989713
Delayed;Imaclim-R;2043;225.2409095
Delayed;Imaclim-R;2044;222.8836523
Delayed;Imaclim-R;2045;219.0654258
Delayed;Imaclim-R;2046;214.4455982
Delayed;Imaclim-R;2047;192.1874074
Delayed;Imaclim-R;2048;191.5597288
Delayed;Imaclim-R;2049;191.3425691
Delayed;Imaclim-R;2050;191.1419589
Divergent;Imaclim-R;2020;367.8828555
Divergent;Imaclim-R;2021;384.7591448
Divergent;Imaclim-R;2022;381.0882521
Divergent;Imaclim-R;2023;376.1655046
Divergent;Imaclim-R;2024;362.0713515
Divergent;Imaclim-R;2025;342.4095095
Divergent;Imaclim-R;2026;333.2370622
Divergent;Imaclim-R;2027;324.6958695
Divergent;Imaclim-R;2028;317.6951217
Divergent;Imaclim-R;2029;311.2015172
Divergent;Imaclim-R;2030;306.0105839
Divergent;Imaclim-R;2031;289.2457267
Divergent;Imaclim-R;2032;273.3449199
Divergent;Imaclim-R;2033;259.825149
Divergent;Imaclim-R;2034;246.2759222
Divergent;Imaclim-R;2035;234.5395076
Divergent;Imaclim-R;2036;217.2699251
Divergent;Imaclim-R;2037;207.0420572
Divergent;Imaclim-R;2038;198.9876169
Divergent;Imaclim-R;2039;188.1270692
Divergent;Imaclim-R;2040;179.7043321
Divergent;Imaclim-R;2041;174.9873823
Divergent;Imaclim-R;2042;171.36792
Divergent;Imaclim-R;2043;169.0078442
Divergent;Imaclim-R;2044;166.8445281
Divergent;Imaclim-R;2045;163.8052449
Divergent;Imaclim-R;2046;160.7191007
Divergent;Imaclim-R;2047;158.1278696
Divergent;Imaclim-R;2048;155.7131839
Divergent;Imaclim-R;2049;153.5272828
Divergent;Imaclim-R;2050;152.396223
Baseline;Three-ME;2020;354.2113022
Baseline;Three-ME;2021;355.0079464
Baseline;Three-ME;2022;355.8063823
Baseline;Three-ME;2023;356.0857584
Baseline;Three-ME;2024;355.8028449
Baseline;Three-ME;2025;354.9895447
Baseline;Three-ME;2026;353.7391528
Baseline;Three-ME;2027;352.1012676
Baseline;Three-ME;2028;350.0214651
Baseline;Three-ME;2029;347.7701548
Baseline;Three-ME;2030;345.6113489
Baseline;Three-ME;2031;343.9153389
Baseline;Three-ME;2032;343.043347
Baseline;Three-ME;2033;343.0510801
Baseline;Three-ME;2034;343.8958859
Baseline;Three-ME;2035;345.5232103
Baseline;Three-ME;2036;347.8789552
Baseline;Three-ME;2037;350.9392739
Baseline;Three-ME;2038;354.6784649
Baseline;Three-ME;2039;359.0568579
Baseline;Three-ME;2040;364.0482433
Baseline;Three-ME;2041;369.6393638
Baseline;Three-ME;2042;375.8434613
Baseline;Three-ME;2043;382.648189
Baseline;Three-ME;2044;389.9643622
Baseline;Three-ME;2045;397.669369
Baseline;Three-ME;2046;405.6573119
Baseline;Three-ME;2047;413.8484793
Baseline;Three-ME;2048;422.1777592
Baseline;Three-ME;2049;430.5881892
Baseline;Three-ME;2050;439.0272809
NZE 2050;Three-ME;2020;354.2113022
NZE 2050;Three-ME;2021;355.0079464
NZE 2050;Three-ME;2022;345.7680158
NZE 2050;Three-ME;2023;335.4615725
NZE 2050;Three-ME;2024;325.4071709
NZE 2050;Three-ME;2025;315.028124
NZE 2050;Three-ME;2026;305.077842
NZE 2050;Three-ME;2027;295.4869719
NZE 2050;Three-ME;2028;286.1988385
NZE 2050;Three-ME;2029;277.3852051
NZE 2050;Three-ME;2030;269.1219132
NZE 2050;Three-ME;2031;261.3661596
NZE 2050;Three-ME;2032;254.0679673
NZE 2050;Three-ME;2033;247.2402047
NZE 2050;Three-ME;2034;240.8716272
NZE 2050;Three-ME;2035;234.9490615
NZE 2050;Three-ME;2036;229.4576765
NZE 2050;Three-ME;2037;224.3864491
NZE 2050;Three-ME;2038;219.7002968
NZE 2050;Three-ME;2039;215.3456483
NZE 2050;Three-ME;2040;211.274783
NZE 2050;Three-ME;2041;207.4640908
NZE 2050;Three-ME;2042;203.9136291
NZE 2050;Three-ME;2043;200.5745077
NZE 2050;Three-ME;2044;197.3512289
NZE 2050;Three-ME;2045;194.1374122
NZE 2050;Three-ME;2046;190.8512477
NZE 2050;Three-ME;2047;187.4302092
NZE 2050;Three-ME;2048;183.8075743
NZE 2050;Three-ME;2049;179.9145546
NZE 2050;Three-ME;2050;175.6787787
Delayed;Three-ME;2020;354.2113022
Delayed;Three-ME;2021;355.0251846
Delayed;Three-ME;2022;355.8245764
Delayed;Three-ME;2023;356.1043356
Delayed;Three-ME;2024;355.8212247
Delayed;Three-ME;2025;355.0070317
Delayed;Three-ME;2026;353.7548846
Delayed;Three-ME;2027;352.1142592
Delayed;Three-ME;2028;350.0308135
Delayed;Three-ME;2029;347.7750532
Delayed;Three-ME;2030;345.1737987
Delayed;Three-ME;2031;334.8770033
Delayed;Three-ME;2032;323.5913937
Delayed;Three-ME;2033;311.897833
Delayed;Three-ME;2034;300.2742614
Delayed;Three-ME;2035;289.0593546
Delayed;Three-ME;2036;279.2576025
Delayed;Three-ME;2037;270.7579715
Delayed;Three-ME;2038;263.3784199
Delayed;Three-ME;2039;256.9207257
Delayed;Three-ME;2040;251.2000208
Delayed;Three-ME;2041;246.0809223
Delayed;Three-ME;2042;241.462177
Delayed;Three-ME;2043;237.2236136
Delayed;Three-ME;2044;233.2331944
Delayed;Three-ME;2045;229.3734025
Delayed;Three-ME;2046;225.5640335
Delayed;Three-ME;2047;221.7519362
Delayed;Three-ME;2048;217.8873379
Delayed;Three-ME;2049;213.9282741
Delayed;Three-ME;2050;209.8414478
Divergent;Three-ME;2020;354.2113022
Divergent;Three-ME;2021;355.0079464
Divergent;Three-ME;2022;346.1373742
Divergent;Three-ME;2023;336.5148098
Divergent;Three-ME;2024;326.4644791
Divergent;Three-ME;2025;314.5658846
Divergent;Three-ME;2026;302.9835907
Divergent;Three-ME;2027;292.0806685
Divergent;Three-ME;2028;281.968016
Divergent;Three-ME;2029;272.8968635
Divergent;Three-ME;2030;264.9311057
Divergent;Three-ME;2031;256.619283
Divergent;Three-ME;2032;249.067071
Divergent;Three-ME;2033;242.348706
Divergent;Three-ME;2034;236.3530801
Divergent;Three-ME;2035;230.9739729
Divergent;Three-ME;2036;226.1028125
Divergent;Three-ME;2037;221.6979746
Divergent;Three-ME;2038;217.7122112
Divergent;Three-ME;2039;214.0680198
Divergent;Three-ME;2040;210.6980799
Divergent;Three-ME;2041;207.5363548
Divergent;Three-ME;2042;204.5895068
Divergent;Three-ME;2043;201.8275063
Divergent;Three-ME;2044;199.1545065
Divergent;Three-ME;2045;196.4560427
Divergent;Three-ME;2046;193.643092
Divergent;Three-ME;2047;190.6560227
Divergent;Three-ME;2048;187.4273382
Divergent;Three-ME;2049;183.8840247
Divergent;Three-ME;2050;179.9492507
Baseline;NEMESIS;2020;353.0775527
Baseline;NEMESIS;2021;364.5832392
Baseline;NEMESIS;2022;346.1574569
Baseline;NEMESIS;2023;344.1221842
Baseline;NEMESIS;2024;340.1658522
Baseline;NEMESIS;2025;336.7954719
Baseline;NEMESIS;2026;331.5306776
Baseline;NEMESIS;2027;326.1779162
Baseline;NEMESIS;2028;321.40058
Baseline;NEMESIS;2029;316.0241123
Baseline;NEMESIS;2030;310.754149
Baseline;NEMESIS;2031;309.8482111
Baseline;NEMESIS;2032;308.2785273
Baseline;NEMESIS;2033;306.7756927
Baseline;NEMESIS;2034;305.853132
Baseline;NEMESIS;2035;304.7206081
Baseline;NEMESIS;2036;308.755282
Baseline;NEMESIS;2037;312.5319213
Baseline;NEMESIS;2038;316.8251376
Baseline;NEMESIS;2039;320.3056704
Baseline;NEMESIS;2040;323.5142439
Baseline;NEMESIS;2041;324.2688011
Baseline;NEMESIS;2042;324.2436176
Baseline;NEMESIS;2043;324.2816126
Baseline;NEMESIS;2044;325.2249894
Baseline;NEMESIS;2045;325.4628458
Baseline;NEMESIS;2046;329.1692232
Baseline;NEMESIS;2047;332.3655841
Baseline;NEMESIS;2048;336.1505988
Baseline;NEMESIS;2049;338.9911555
Baseline;NEMESIS;2050;341.8349199
NZE 2050;NEMESIS;2020;353.0776721
NZE 2050;NEMESIS;2021;364.5833259
NZE 2050;NEMESIS;2022;308.7414526
NZE 2050;NEMESIS;2023;293.3493546
NZE 2050;NEMESIS;2024;278.2699163
NZE 2050;NEMESIS;2025;264.1620845
NZE 2050;NEMESIS;2026;257.055134
NZE 2050;NEMESIS;2027;249.7428973
NZE 2050;NEMESIS;2028;242.3782756
NZE 2050;NEMESIS;2029;235.1839551
NZE 2050;NEMESIS;2030;228.202886
NZE 2050;NEMESIS;2031;218.8107234
NZE 2050;NEMESIS;2032;209.7837566
NZE 2050;NEMESIS;2033;201.1361965
NZE 2050;NEMESIS;2034;192.7904077
NZE 2050;NEMESIS;2035;177.2430009
NZE 2050;NEMESIS;2036;163.1633002
NZE 2050;NEMESIS;2037;148.8219065
NZE 2050;NEMESIS;2038;134.3062786
NZE 2050;NEMESIS;2039;119.8282714
NZE 2050;NEMESIS;2040;105.3663615
NZE 2050;NEMESIS;2041;99.70542338
NZE 2050;NEMESIS;2042;91.802074
NZE 2050;NEMESIS;2043;84.54211351
NZE 2050;NEMESIS;2044;77.52570944
NZE 2050;NEMESIS;2045;70.74103025
NZE 2050;NEMESIS;2046;62.92690224
NZE 2050;NEMESIS;2047;55.72911888
NZE 2050;NEMESIS;2048;48.59825838
NZE 2050;NEMESIS;2049;41.68112868
NZE 2050;NEMESIS;2050;34.99213701
Delayed;NEMESIS;2020;353.0776721
Delayed;NEMESIS;2021;364.5833259
Delayed;NEMESIS;2022;346.1703914
Delayed;NEMESIS;2023;344.1371756
Delayed;NEMESIS;2024;340.1718151
Delayed;NEMESIS;2025;336.7983973
Delayed;NEMESIS;2026;331.5303005
Delayed;NEMESIS;2027;326.1772878
Delayed;NEMESIS;2028;321.3994977
Delayed;NEMESIS;2029;316.0236074
Delayed;NEMESIS;2030;310.7538305
Delayed;NEMESIS;2031;272.3260986
Delayed;NEMESIS;2032;245.5490754
Delayed;NEMESIS;2033;223.5584017
Delayed;NEMESIS;2034;204.2775648
Delayed;NEMESIS;2035;179.8220637
Delayed;NEMESIS;2036;163.6505444
Delayed;NEMESIS;2037;147.3565445
Delayed;NEMESIS;2038;130.7804472
Delayed;NEMESIS;2039;114.398844
Delayed;NEMESIS;2040;98.31198228
Delayed;NEMESIS;2041;91.46720475
Delayed;NEMESIS;2042;82.48914764
Delayed;NEMESIS;2043;74.24736487
Delayed;NEMESIS;2044;66.36311642
Delayed;NEMESIS;2045;58.80835595
Delayed;NEMESIS;2046;50.14065492
Delayed;NEMESIS;2047;42.21743765
Delayed;NEMESIS;2048;34.43834975
Delayed;NEMESIS;2049;26.93212248
Delayed;NEMESIS;2050;19.72506271
Divergent;NEMESIS;2020;353.0776611
Divergent;NEMESIS;2021;364.5832781
Divergent;NEMESIS;2022;311.3757329
Divergent;NEMESIS;2023;286.3674484
Divergent;NEMESIS;2024;254.823746
Divergent;NEMESIS;2025;219.3506652
Divergent;NEMESIS;2026;209.0664263
Divergent;NEMESIS;2027;200.5861169
Divergent;NEMESIS;2028;192.5143163
Divergent;NEMESIS;2029;184.8460548
Divergent;NEMESIS;2030;177.4645196
Divergent;NEMESIS;2031;169.9763656
Divergent;NEMESIS;2032;162.7341958
Divergent;NEMESIS;2033;155.7816181
Divergent;NEMESIS;2034;149.2011602
Divergent;NEMESIS;2035;134.4623554
Divergent;NEMESIS;2036;121.3773342
Divergent;NEMESIS;2037;107.8516738
Divergent;NEMESIS;2038;93.89937985
Divergent;NEMESIS;2039;79.90666618
Divergent;NEMESIS;2040;65.86510249
Divergent;NEMESIS;2041;61.6232454
Divergent;NEMESIS;2042;54.88121248
Divergent;NEMESIS;2043;48.64579012
Divergent;NEMESIS;2044;42.70617431
Divergent;NEMESIS;2045;36.95516182
Divergent;NEMESIS;2046;29.93495461
Divergent;NEMESIS;2047;23.64994759
Divergent;NEMESIS;2048;17.32555727
Divergent;NEMESIS;2049;11.24305377
Divergent;NEMESIS;2050;5.352597109
